%!PS-Adobe-2.0 EPSF-2.0
%%Title: er-chart.eps
%%Creator: fig2dev Version 3.2 Patchlevel 1
%%CreationDate: Sun Oct  4 19:54:02 1998
%%For: jams@kalalokki (Sepp{nen Jarno,H6802,,SIG,153397,HENK)
%%Orientation: Portrait
%%BoundingBox: 0 0 443 524
%%Pages: 0
%%BeginSetup
%%EndSetup
%%Magnification: 1.0000
%%EndComments
/$F2psDict 200 dict def
$F2psDict begin
$F2psDict /mtrx matrix put
/col-1 {0 setgray} bind def
/col0 {0.000 0.000 0.000 srgb} bind def
/col1 {0.000 0.000 1.000 srgb} bind def
/col2 {0.000 1.000 0.000 srgb} bind def
/col3 {0.000 1.000 1.000 srgb} bind def
/col4 {1.000 0.000 0.000 srgb} bind def
/col5 {1.000 0.000 1.000 srgb} bind def
/col6 {1.000 1.000 0.000 srgb} bind def
/col7 {1.000 1.000 1.000 srgb} bind def
/col8 {0.000 0.000 0.560 srgb} bind def
/col9 {0.000 0.000 0.690 srgb} bind def
/col10 {0.000 0.000 0.820 srgb} bind def
/col11 {0.530 0.810 1.000 srgb} bind def
/col12 {0.000 0.560 0.000 srgb} bind def
/col13 {0.000 0.690 0.000 srgb} bind def
/col14 {0.000 0.820 0.000 srgb} bind def
/col15 {0.000 0.560 0.560 srgb} bind def
/col16 {0.000 0.690 0.690 srgb} bind def
/col17 {0.000 0.820 0.820 srgb} bind def
/col18 {0.560 0.000 0.000 srgb} bind def
/col19 {0.690 0.000 0.000 srgb} bind def
/col20 {0.820 0.000 0.000 srgb} bind def
/col21 {0.560 0.000 0.560 srgb} bind def
/col22 {0.690 0.000 0.690 srgb} bind def
/col23 {0.820 0.000 0.820 srgb} bind def
/col24 {0.500 0.190 0.000 srgb} bind def
/col25 {0.630 0.250 0.000 srgb} bind def
/col26 {0.750 0.380 0.000 srgb} bind def
/col27 {1.000 0.500 0.500 srgb} bind def
/col28 {1.000 0.630 0.630 srgb} bind def
/col29 {1.000 0.750 0.750 srgb} bind def
/col30 {1.000 0.880 0.880 srgb} bind def
/col31 {1.000 0.840 0.000 srgb} bind def

end
save
-179.0 550.0 translate
1 -1 scale

/cp {closepath} bind def
/ef {eofill} bind def
/gr {grestore} bind def
/gs {gsave} bind def
/sa {save} bind def
/rs {restore} bind def
/l {lineto} bind def
/m {moveto} bind def
/rm {rmoveto} bind def
/n {newpath} bind def
/s {stroke} bind def
/sh {show} bind def
/slc {setlinecap} bind def
/slj {setlinejoin} bind def
/slw {setlinewidth} bind def
/srgb {setrgbcolor} bind def
/rot {rotate} bind def
/sc {scale} bind def
/sd {setdash} bind def
/ff {findfont} bind def
/sf {setfont} bind def
/scf {scalefont} bind def
/sw {stringwidth} bind def
/tr {translate} bind def
/tnt {dup dup currentrgbcolor
  4 -2 roll dup 1 exch sub 3 -1 roll mul add
  4 -2 roll dup 1 exch sub 3 -1 roll mul add
  4 -2 roll dup 1 exch sub 3 -1 roll mul add srgb}
  bind def
/shd {dup dup currentrgbcolor 4 -2 roll mul 4 -2 roll mul
  4 -2 roll mul srgb} bind def
/$F2psBegin {$F2psDict begin /$F2psEnteredState save def} def
/$F2psEnd {$F2psEnteredState restore end} def
%%EndProlog

$F2psBegin
10 setmiterlimit
n -1000 10162 m -1000 -1000 l 11362 -1000 l 11362 10162 l cp clip
 0.06000 0.06000 sc
% Polyline
7.500 slw
n 5250 450 m 7350 450 l 7350 1275 l 5250 1275 l cp gs col0 s gr 
% Polyline
n 5550 2550 m 6300 1950 l 7050 2550 l 6300 3150 l 5550 2550 l  cp gs col0 s gr 
% Polyline
n 5325 3750 m 7425 3750 l 7425 4575 l 5325 4575 l cp gs col0 s gr 
% Polyline
n 6300 1275 m 6300 1950 l gs col0 s gr 
% Polyline
n 6300 3150 m 6300 3750 l gs col0 s gr 
% Polyline
n 8400 4200 m 9150 3600 l 9900 4200 l 9150 4800 l 8400 4200 l  cp gs col0 s gr 
% Polyline
n 3300 4200 m 4050 3600 l 4800 4200 l 4050 4800 l 3300 4200 l  cp gs col0 s gr 
% Polyline
n 3000 5550 m 5100 5550 l 5100 6375 l 3000 6375 l cp gs col0 s gr 
% Polyline
n 8175 5475 m 10275 5475 l 10275 6300 l 8175 6300 l cp gs col0 s gr 
% Polyline
n 8250 8325 m 10350 8325 l 10350 9150 l 8250 9150 l cp gs col0 s gr 
% Polyline
n 8475 7425 m 9225 6825 l 9975 7425 l 9225 8025 l 8475 7425 l  cp gs col0 s gr 
% Polyline
n 3300 7500 m 4050 6900 l 4800 7500 l 4050 8100 l 3300 7500 l  cp gs col0 s gr 
% Polyline
n 5550 7125 m 7650 7125 l 7650 7950 l 5550 7950 l cp gs col0 s gr 
% Polyline
n 5325 4200 m 4800 4200 l gs col0 s gr 
% Polyline
n 4050 4800 m 4050 5550 l gs col0 s gr 
% Polyline
n 4050 6375 m 4050 6900 l gs col0 s gr 
% Polyline
n 4800 7500 m 5550 7500 l gs col0 s gr 
% Polyline
n 7650 7425 m 8475 7425 l gs col0 s gr 
% Polyline
n 9225 6825 m 9225 6300 l gs col0 s gr 
% Polyline
n 9150 4800 m 9150 5475 l gs col0 s gr 
% Polyline
n 8400 4200 m 7425 4200 l gs col0 s gr 
% Polyline
gs  clippath
9255 8205 m 9225 8325 l 9195 8205 l 9195 8340 l 9255 8340 l cp
clip
n 9225 8025 m 9225 8325 l gs col0 s gr gr

% arrowhead
n 9255 8205 m 9225 8325 l 9195 8205 l  col0 s
/Helvetica ff 300.00 scf sf
5775 975 m
gs 1 -1 sc (Network) col0 sh gr
/Helvetica ff 225.00 scf sf
5925 2625 m
gs 1 -1 sc (contains) col0 sh gr
/Helvetica ff 300.00 scf sf
6000 4275 m
gs 1 -1 sc (Block) col0 sh gr
/Helvetica ff 225.00 scf sf
8700 4275 m
gs 1 -1 sc (contains) col0 sh gr
/Helvetica ff 225.00 scf sf
3675 4275 m
gs 1 -1 sc (contains) col0 sh gr
/Helvetica ff 300.00 scf sf
8250 6000 m
gs 1 -1 sc (Output terminal) col0 sh gr
/Helvetica ff 300.00 scf sf
3225 6075 m
gs 1 -1 sc (Input terminal) col0 sh gr
/Helvetica ff 300.00 scf sf
6225 7650 m
gs 1 -1 sc (Frame) col0 sh gr
/Helvetica ff 300.00 scf sf
9075 8850 m
gs 1 -1 sc (Wire) col0 sh gr
/Helvetica ff 225.00 scf sf
3825 7575 m
gs 1 -1 sc (holds) col0 sh gr
/Helvetica ff 225.00 scf sf
8925 7500 m
gs 1 -1 sc (relays) col0 sh gr
/Helvetica ff 225.00 scf sf
6375 1500 m
gs 1 -1 sc (1:1) col0 sh gr
/Helvetica ff 225.00 scf sf
5025 4125 m
gs 1 -1 sc (1:1) col0 sh gr
/Helvetica ff 225.00 scf sf
7500 4125 m
gs 1 -1 sc (1:1) col0 sh gr
/Helvetica ff 225.00 scf sf
9300 6525 m
gs 1 -1 sc (1:1) col0 sh gr
/Helvetica ff 225.00 scf sf
4125 6600 m
gs 1 -1 sc (1:1) col0 sh gr
/Helvetica ff 225.00 scf sf
7725 7650 m
gs 1 -1 sc (1:N) col0 sh gr
/Helvetica ff 225.00 scf sf
6375 3675 m
gs 1 -1 sc (0:N) col0 sh gr
/Helvetica ff 225.00 scf sf
3675 5475 m
gs 1 -1 sc (0:N) col0 sh gr
/Helvetica ff 225.00 scf sf
8775 5400 m
gs 1 -1 sc (0:N) col0 sh gr
/Helvetica ff 225.00 scf sf
5175 7425 m
gs 1 -1 sc (0:N) col0 sh gr
$F2psEnd
rs
