%!PS-Adobe-2.0 EPSF-2.0
%%Title: class-hierarchy.eps
%%Creator: fig2dev Version 3.2 Patchlevel 1
%%CreationDate: Thu Oct 29 10:02:46 1998
%%For: jams@kalalokki (Sepp{nen Jarno,H6802,,SIG,153397,HENK)
%%Orientation: Portrait
%%BoundingBox: 0 0 722 511
%%Pages: 0
%%BeginSetup
%%EndSetup
%%Magnification: 1.0000
%%EndComments
/$F2psDict 200 dict def
$F2psDict begin
$F2psDict /mtrx matrix put
/col-1 {0 setgray} bind def
/col0 {0.000 0.000 0.000 srgb} bind def
/col1 {0.000 0.000 1.000 srgb} bind def
/col2 {0.000 1.000 0.000 srgb} bind def
/col3 {0.000 1.000 1.000 srgb} bind def
/col4 {1.000 0.000 0.000 srgb} bind def
/col5 {1.000 0.000 1.000 srgb} bind def
/col6 {1.000 1.000 0.000 srgb} bind def
/col7 {1.000 1.000 1.000 srgb} bind def
/col8 {0.000 0.000 0.560 srgb} bind def
/col9 {0.000 0.000 0.690 srgb} bind def
/col10 {0.000 0.000 0.820 srgb} bind def
/col11 {0.530 0.810 1.000 srgb} bind def
/col12 {0.000 0.560 0.000 srgb} bind def
/col13 {0.000 0.690 0.000 srgb} bind def
/col14 {0.000 0.820 0.000 srgb} bind def
/col15 {0.000 0.560 0.560 srgb} bind def
/col16 {0.000 0.690 0.690 srgb} bind def
/col17 {0.000 0.820 0.820 srgb} bind def
/col18 {0.560 0.000 0.000 srgb} bind def
/col19 {0.690 0.000 0.000 srgb} bind def
/col20 {0.820 0.000 0.000 srgb} bind def
/col21 {0.560 0.000 0.560 srgb} bind def
/col22 {0.690 0.000 0.690 srgb} bind def
/col23 {0.820 0.000 0.820 srgb} bind def
/col24 {0.500 0.190 0.000 srgb} bind def
/col25 {0.630 0.250 0.000 srgb} bind def
/col26 {0.750 0.380 0.000 srgb} bind def
/col27 {1.000 0.500 0.500 srgb} bind def
/col28 {1.000 0.630 0.630 srgb} bind def
/col29 {1.000 0.750 0.750 srgb} bind def
/col30 {1.000 0.880 0.880 srgb} bind def
/col31 {1.000 0.840 0.000 srgb} bind def

end
save
-71.0 640.0 translate
1 -1 scale

/cp {closepath} bind def
/ef {eofill} bind def
/gr {grestore} bind def
/gs {gsave} bind def
/sa {save} bind def
/rs {restore} bind def
/l {lineto} bind def
/m {moveto} bind def
/rm {rmoveto} bind def
/n {newpath} bind def
/s {stroke} bind def
/sh {show} bind def
/slc {setlinecap} bind def
/slj {setlinejoin} bind def
/slw {setlinewidth} bind def
/srgb {setrgbcolor} bind def
/rot {rotate} bind def
/sc {scale} bind def
/sd {setdash} bind def
/ff {findfont} bind def
/sf {setfont} bind def
/scf {scalefont} bind def
/sw {stringwidth} bind def
/tr {translate} bind def
/tnt {dup dup currentrgbcolor
  4 -2 roll dup 1 exch sub 3 -1 roll mul add
  4 -2 roll dup 1 exch sub 3 -1 roll mul add
  4 -2 roll dup 1 exch sub 3 -1 roll mul add srgb}
  bind def
/shd {dup dup currentrgbcolor 4 -2 roll mul 4 -2 roll mul
  4 -2 roll mul srgb} bind def
 /DrawEllipse {
	/endangle exch def
	/startangle exch def
	/yrad exch def
	/xrad exch def
	/y exch def
	/x exch def
	/savematrix mtrx currentmatrix def
	x y tr xrad yrad sc 0 0 1 startangle endangle arc
	closepath
	savematrix setmatrix
	} def

/$F2psBegin {$F2psDict begin /$F2psEnteredState save def} def
/$F2psEnd {$F2psEnteredState restore end} def
%%EndProlog

$F2psBegin
10 setmiterlimit
n -1000 11662 m -1000 -1000 l 14212 -1000 l 14212 11662 l cp clip
 0.06000 0.06000 sc
% Polyline
7.500 slw
n 7650 2175 m 9975 2175 l 9975 3150 l 7650 3150 l cp gs col0 s gr 
/Helvetica-Narrow-Bold ff 270.00 scf sf
8850 2775 m
gs 1 -1 sc (SF_Block) dup sw pop 2 div neg 0 rm  col0 sh gr
% Polyline
n 10875 5850 m 13200 5850 l 13200 6825 l 10875 6825 l cp gs col0 s gr 
/Helvetica-Narrow-Bold ff 270.00 scf sf
12000 6450 m
gs 1 -1 sc (SF_Variable) dup sw pop 2 div neg 0 rm  col0 sh gr
% Polyline
n 4425 9675 m 6750 9675 l 6750 10650 l 4425 10650 l cp gs col0 s gr 
/Helvetica-Narrow-Bold ff 270.00 scf sf
5550 10275 m
gs 1 -1 sc (SF_Exception) dup sw pop 2 div neg 0 rm  col0 sh gr
% Polyline
n 7650 3675 m 9975 3675 l 9975 4650 l 7650 4650 l cp gs col0 s gr 
/Helvetica-Narrow-Bold ff 270.00 scf sf
8775 4275 m
gs 1 -1 sc (SF_Frame) dup sw pop 2 div neg 0 rm  col0 sh gr
% Polyline
n 7200 9675 m 10500 9675 l 10500 10650 l 7200 10650 l cp gs col0 s gr 
/Helvetica-Narrow-Bold ff 210.00 scf sf
8850 10275 m
gs 1 -1 sc (SF_Network_Sanity_Exception) dup sw pop 2 div neg 0 rm  col0 sh gr
% Polyline
n 10875 8475 m 13200 8475 l 13200 9450 l 10875 9450 l cp gs col0 s gr 
/Helvetica-Narrow-Bold ff 210.00 scf sf
12000 9075 m
gs 1 -1 sc (SF_Output_Terminal) dup sw pop 2 div neg 0 rm  col0 sh gr
% Polyline
n 10875 7200 m 13200 7200 l 13200 8175 l 10875 8175 l cp gs col0 s gr 
/Helvetica-Narrow-Bold ff 210.00 scf sf
12075 7800 m
gs 1 -1 sc (SF_Input_Terminal) dup sw pop 2 div neg 0 rm  col0 sh gr
% Polyline
n 7650 7200 m 9975 7200 l 9975 8175 l 7650 8175 l cp gs col0 s gr 
/Helvetica-Narrow-Bold ff 270.00 scf sf
8850 7800 m
gs 1 -1 sc (SF_Terminal) dup sw pop 2 div neg 0 rm  col0 sh gr
% Ellipse
n 12000 5250 40 40 0 360 DrawEllipse gs col7 0.00 shd ef gr gs col0 s gr

% Ellipse
n 12000 5550 40 40 0 360 DrawEllipse gs col7 0.00 shd ef gr gs col0 s gr

% Ellipse
n 12000 4950 40 40 0 360 DrawEllipse gs col7 0.00 shd ef gr gs col0 s gr

% Polyline
gs  clippath
7468 4095 m 7588 4125 l 7468 4155 l 7665 4155 l 7665 4095 l cp
clip
n 7125 2700 m 7125 4125 l 7650 4125 l gs col0 s gr gr

% arrowhead
30.000 slw
n 7468 4095 m 7588 4125 l 7468 4155 l 7468 4125 l 7468 4095 l  cp gs 0.00 setgray ef gr  col0 s
% Polyline
7.500 slw
gs  clippath
7468 7695 m 7588 7725 l 7468 7755 l 7665 7755 l 7665 7695 l cp
clip
n 7125 4125 m 7125 7725 l 7650 7725 l gs col0 s gr gr

% arrowhead
30.000 slw
n 7468 7695 m 7588 7725 l 7468 7755 l 7468 7725 l 7468 7695 l  cp gs 0.00 setgray ef gr  col0 s
% Polyline
7.500 slw
gs  clippath
10693 2670 m 10813 2700 l 10693 2730 l 10890 2730 l 10890 2670 l cp
clip
n 9975 2700 m 10875 2700 l gs col0 s gr gr

% arrowhead
30.000 slw
n 10693 2670 m 10813 2700 l 10693 2730 l 10693 2700 l 10693 2670 l  cp gs 0.00 setgray ef gr  col0 s
% Polyline
7.500 slw
gs  clippath
10693 4095 m 10813 4125 l 10693 4155 l 10890 4155 l 10890 4095 l cp
clip
n 10350 2700 m 10350 4125 l 10875 4125 l gs col0 s gr gr

% arrowhead
30.000 slw
n 10693 4095 m 10813 4125 l 10693 4155 l 10693 4125 l 10693 4095 l  cp gs 0.00 setgray ef gr  col0 s
% Polyline
7.500 slw
gs  clippath
10693 6345 m 10813 6375 l 10693 6405 l 10890 6405 l 10890 6345 l cp
clip
n 10350 5925 m 10350 6375 l 10875 6375 l gs col0 s gr gr

% arrowhead
30.000 slw
n 10693 6345 m 10813 6375 l 10693 6405 l 10693 6375 l 10693 6345 l  cp gs 0.00 setgray ef gr  col0 s
% Polyline
7.500 slw
n 10350 4125 m 10350 4650 l gs col0 s gr 
% Polyline
 [60] 0 sd
n 10350 4800 m 10350 5850 l gs col0 s gr  [] 0 sd
% Polyline
gs  clippath
4243 4170 m 4363 4200 l 4243 4230 l 4440 4230 l 4440 4170 l cp
clip
n 3900 2700 m 3900 4200 l 4425 4200 l gs col0 s gr gr

% arrowhead
30.000 slw
n 4243 4170 m 4363 4200 l 4243 4230 l 4243 4200 l 4243 4170 l  cp gs 0.00 setgray ef gr  col0 s
% Polyline
7.500 slw
gs  clippath
4243 5670 m 4363 5700 l 4243 5730 l 4440 5730 l 4440 5670 l cp
clip
n 3900 4200 m 3900 5700 l 4425 5700 l gs col0 s gr gr

% arrowhead
30.000 slw
n 4243 5670 m 4363 5700 l 4243 5730 l 4243 5700 l 4243 5670 l  cp gs 0.00 setgray ef gr  col0 s
% Polyline
7.500 slw
gs  clippath
4243 7170 m 4363 7200 l 4243 7230 l 4440 7230 l 4440 7170 l cp
clip
n 3900 5700 m 3900 7200 l 4425 7200 l gs col0 s gr gr

% arrowhead
30.000 slw
n 4243 7170 m 4363 7200 l 4243 7230 l 4243 7200 l 4243 7170 l  cp gs 0.00 setgray ef gr  col0 s
% Polyline
7.500 slw
gs  clippath
4243 8670 m 4363 8700 l 4243 8730 l 4440 8730 l 4440 8670 l cp
clip
n 3900 7200 m 3900 8700 l 4425 8700 l gs col0 s gr gr

% arrowhead
30.000 slw
n 4243 8670 m 4363 8700 l 4243 8730 l 4243 8700 l 4243 8670 l  cp gs 0.00 setgray ef gr  col0 s
% Polyline
7.500 slw
gs  clippath
7469 2670 m 7588 2700 l 7469 2730 l 7665 2730 l 7665 2670 l cp
clip
n 3525 2700 m 7650 2700 l gs col0 s gr gr

% arrowhead
30.000 slw
n 7469 2670 m 7588 2700 l 7469 2730 l 7469 2700 l 7469 2670 l  cp gs 0.00 setgray ef gr  col0 s
% Polyline
7.500 slw
n 1200 2175 m 3525 2175 l 3525 3150 l 1200 3150 l cp gs col0 s gr 
% Polyline
n 4425 5175 m 6750 5175 l 6750 6150 l 4425 6150 l cp gs col0 s gr 
% Polyline
n 4425 6675 m 6750 6675 l 6750 7650 l 4425 7650 l cp gs col0 s gr 
% Polyline
n 4425 8175 m 6750 8175 l 6750 9150 l 4425 9150 l cp gs col0 s gr 
% Polyline
n 10875 3675 m 13200 3675 l 13200 4650 l 10875 4650 l cp gs col0 s gr 
% Polyline
n 10875 2175 m 13200 2175 l 13200 3150 l 10875 3150 l cp gs col0 s gr 
% Polyline
n 4425 3675 m 6750 3675 l 6750 4650 l 4425 4650 l cp gs col0 s gr 
% Polyline
gs  clippath
4243 10170 m 4363 10200 l 4243 10230 l 4440 10230 l 4440 10170 l cp
clip
n 3900 8700 m 3900 10200 l 4425 10200 l gs col0 s gr gr

% arrowhead
30.000 slw
n 4243 10170 m 4363 10200 l 4243 10230 l 4243 10200 l 4243 10170 l  cp gs 0.00 setgray ef gr  col0 s
% Polyline
7.500 slw
gs  clippath
7018 10170 m 7138 10200 l 7018 10230 l 7215 10230 l 7215 10170 l cp
clip
n 6750 10200 m 7200 10200 l gs col0 s gr gr

% arrowhead
30.000 slw
n 7018 10170 m 7138 10200 l 7018 10230 l 7018 10200 l 7018 10170 l  cp gs 0.00 setgray ef gr  col0 s
% Polyline
7.500 slw
gs  clippath
10693 7695 m 10813 7725 l 10693 7755 l 10890 7755 l 10890 7695 l cp
clip
n 9975 7725 m 10875 7725 l gs col0 s gr gr

% arrowhead
30.000 slw
n 10693 7695 m 10813 7725 l 10693 7755 l 10693 7725 l 10693 7695 l  cp gs 0.00 setgray ef gr  col0 s
% Polyline
7.500 slw
gs  clippath
10693 8970 m 10813 9000 l 10693 9030 l 10890 9030 l 10890 8970 l cp
clip
n 10350 7725 m 10350 9000 l 10875 9000 l gs col0 s gr gr

% arrowhead
30.000 slw
n 10693 8970 m 10813 9000 l 10693 9030 l 10693 9000 l 10693 8970 l  cp gs 0.00 setgray ef gr  col0 s
/Helvetica-Narrow-Bold ff 270.00 scf sf
2325 2775 m
gs 1 -1 sc (Class) dup sw pop 2 div neg 0 rm  col0 sh gr
/Helvetica-Narrow-Bold ff 270.00 scf sf
5550 5775 m
gs 1 -1 sc (SF_List_Node) dup sw pop 2 div neg 0 rm  col0 sh gr
/Helvetica-Narrow-Bold ff 270.00 scf sf
5550 7275 m
gs 1 -1 sc (SF_Queue) dup sw pop 2 div neg 0 rm  col0 sh gr
/Helvetica-Narrow-Bold ff 270.00 scf sf
5550 8775 m
gs 1 -1 sc (SF_Queue_Node) dup sw pop 2 div neg 0 rm  col0 sh gr
/Helvetica-Narrow-Bold ff 270.00 scf sf
12000 4275 m
gs 1 -1 sc (SF_Adder) dup sw pop 2 div neg 0 rm  col0 sh gr
/Helvetica-Narrow-Bold ff 270.00 scf sf
12000 2775 m
gs 1 -1 sc (SF_Network) dup sw pop 2 div neg 0 rm  col0 sh gr
/Helvetica-Narrow-Bold ff 270.00 scf sf
5550 4275 m
gs 1 -1 sc (SF_List) dup sw pop 2 div neg 0 rm  col0 sh gr
$F2psEnd
rs
